Project 1: Exploratory Data Analysis
…
# Tidying
diseasew <- disease %>% pivot_wider(names_from = disease, values_from = count)  #Giving each disease its own column (making it wide/ untidy) with its respective count residing in it. 
diseasew %>% pivot_longer(cols = c("Hepatitis A":"Smallpox"), 
    names_to = "disease", values_to = "count") %>% na.omit()  #Putting each disease into a signular column(tidying it) and their counts into its own singular column. 

## # A tibble: 15,851 x 6
##    state    year weeks_reporting population disease     count
##    <fct>   <dbl>           <dbl>      <dbl> <chr>       <dbl>
##  1 Alabama  1966              50    3345787 Hepatitis A   321
##  2 Alabama  1966              50    3345787 Measles      1813
##  3 Alabama  1967              49    3364130 Hepatitis A   291
##  4 Alabama  1968              52    3386068 Hepatitis A   314
##  5 Alabama  1969              49    3412450 Hepatitis A   380
##  6 Alabama  1970              51    3444165 Hepatitis A   413
##  7 Alabama  1970              51    3444165 Mumps         392
##  8 Alabama  1970              51    3444165 Rubella       380
##  9 Alabama  1971              51    3481798 Hepatitis A   378
## 10 Alabama  1971              51    3481798 Mumps        1025
## # … with 15,841 more rows

statew <- state %>% pivot_wider(names_from = state, values_from = Illiteracy)  #Giving each State its own coulmn and having its Illiteracy rate as the value within the column, esentially making the dataset untidy. 
statew %>% pivot_longer(cols = c("Alabama":"Wyoming"), names_to = "state", 
    values_to = "Illiteracy") %>% na.omit()  #Bringing each State into a singular column with Illiteracy values in its own colum, tidying the data. 

## # A tibble: 50 x 10
##    region Population Income Life.Exp Murder HS.Grad Frost   Area state
##    <fct>       <dbl>  <dbl>    <dbl>  <dbl>   <dbl> <dbl>  <dbl> <chr>
##  1 South        3615   3624     69.0   15.1    41.3    20  50708 Alab…
##  2 West          365   6315     69.3   11.3    66.7   152 566432 Alas…
##  3 West         2212   4530     70.6    7.8    58.1    15 113417 Ariz…
##  4 South        2110   3378     70.7   10.1    39.9    65  51945 Arka…
##  5 West        21198   5114     71.7   10.3    62.6    20 156361 Cali…
##  6 West         2541   4884     72.1    6.8    63.9   166 103766 Colo…
##  7 North…       3100   5348     72.5    3.1    56     139   4862 Conn…
##  8 South         579   4809     70.1    6.2    54.6   103   1982 Dela…
##  9 South        8277   4815     70.7   10.7    52.6    11  54090 Flor…
## 10 South        4931   4091     68.5   13.9    40.6    60  58073 Geor…
## # … with 40 more rows, and 1 more variable: Illiteracy <dbl>
…
## Rows: 200
## Columns: 4
## $ state      <chr> "Wisconsin", "California", "Texas", "Texas", "Michigan", "…
## $ disease    <chr> "Mumps", "Hepatitis A", "Measles", "Rubella", "Mumps", "Mu…
## $ count      <dbl> 11346, 9422, 8327, 8323, 7672, 6225, 5972, 5829, 5253, 502…
## $ Illiteracy <dbl> 0.7, 1.1, 2.2, 2.2, 0.9, 1.1, 2.2, 0.6, 1.1, 1.4, 0.8, 0.6…

# T see what state has the least amount of cases then
# proportion it to pop
IJP %>% group_by(state, population) %>% summarise(total_cases = sum(count)) %>% 
    summarise(prop_case_pop = (total_cases/population)) %>% arrange(desc(prop_case_pop))

## # A tibble: 4,138 x 2
## # Groups:   state [50]
##    state     prop_case_pop
##    <chr>             <dbl>
##  1 Vermont          0.0297
##  2 Utah             0.0289
##  3 Wisconsin        0.0277
##  4 Vermont          0.0243
##  5 Vermont          0.0234
##  6 Utah             0.0228
##  7 Utah             0.0220
##  8 Montana          0.0214
##  9 Utah             0.0210
## 10 Vermont          0.0195
## # … with 4,128 more rows
…
IJ2 %>% select(c(Area, count, Illiteracy, population, weeks.reporting)) %>% 
    summarise_all(n_distinct)

##   Area count Illiteracy population weeks.reporting
## 1   50   190         20         50              20

# cor
IJ2_cor <- IJ2 %>% select_if(is.numeric) %>% cor(use = "pair")
tidyIJ2cor <- IJ2_cor %>% as.data.frame %>% rownames_to_column("var1") %>% 
    pivot_longer(-1, names_to = "var2", values_to = "correlation") %>% 
    na.omit()
tidyIJ2cor

## # A tibble: 100 x 3
##    var1            var2            correlation
##    <chr>           <chr>                 <dbl>
##  1 weeks.reporting weeks.reporting      1     
##  2 weeks.reporting count                0.232 
##  3 weeks.reporting population           0.0965
##  4 weeks.reporting Income              -0.0464
##  5 weeks.reporting Illiteracy           0.0277
##  6 weeks.reporting Life.Exp             0.177 
##  7 weeks.reporting Murder              -0.145 
##  8 weeks.reporting HS.Grad             -0.0319
##  9 weeks.reporting Frost               -0.151 
## 10 weeks.reporting Area                -0.0906
## # … with 90 more rows

# group by one region
IJ2 %>% group_by(region) %>% select(c(Area, count, Illiteracy, 
    population, weeks.reporting)) %>% summarise_if(is_numeric, 
    funs(min = min, q25 = quantile(., 0.25), median = median, 
        q75 = quantile(., 0.75), max = max, mean = mean, sd = sd, 
        vari = var)) %>% pivot_longer(-region) %>% pivot_wider(names_from = "region", 
    values_from = "value")

## # A tibble: 40 x 5
##    name                `North Central` Northeast      South     West
##    <chr>                         <dbl>     <dbl>      <dbl>    <dbl>
##  1 Area_min                    36097      1049      1982      6425  
##  2 count_min                       4         9         0         0  
##  3 Illiteracy_min                  0.5       0.6       0.9       0.5
##  4 population_min             617761    444330    548104    300382  
##  5 weeks.reporting_min            19        11         0         0  
##  6 Area_q25                    55427      7521     37294.    82677  
##  7 count_q25                     254.      408.      229.      125. 
##  8 Illiteracy_q25                  0.6       0.7       1.37      0.6
##  9 population_q25            2055807.   946725   2473650.   694409  
## 10 weeks.reporting_q25            49        50        49        46  
## # … with 30 more rows
…
# group by two (region and disease)
IJ2 %>% group_by(region, disease) %>% select(c(Area, count, Illiteracy, 
    population, weeks.reporting)) %>% summarise_if(is_numeric, 
    funs(min = min, q25 = quantile(., 0.25), median = median, 
        q75 = quantile(., 0.75), max = max, mean = mean, sd = sd, 
        vari = var)) %>% pivot_longer(-c(disease, region)) %>% 
    pivot_wider(names_from = c("region", "disease"), values_from = "value")

## # A tibble: 40 x 17
##    name  `North Central_… `North Central_… `North Central_… `North Central_…
##    <chr>            <dbl>            <dbl>            <dbl>            <dbl>
##  1 Area…          36097            36097            36097            36097  
##  2 coun…             21               49               58                4  
##  3 Illi…              0.5              0.5              0.5              0.5
##  4 popu…         617761           617761           617761           617761  
##  5 week…             19               44               45               45  
##  6 Area…          55427            55427            55427            55427  
##  7 coun…            283.             242.             359              149. 
##  8 Illi…              0.6              0.6              0.6              0.6
##  9 popu…        2055807.         2055807.         2055807.         2055807. 
## 10 week…             47.8             47.5             50.8             49.8
## # … with 30 more rows, and 12 more variables: `Northeast_Hepatitis A` <dbl>,
## #   Northeast_Measles <dbl>, Northeast_Mumps <dbl>, Northeast_Rubella <dbl>,
## #   `South_Hepatitis A` <dbl>, South_Measles <dbl>, South_Mumps <dbl>,
## #   South_Rubella <dbl>, `West_Hepatitis A` <dbl>, West_Measles <dbl>,
## #   West_Mumps <dbl>, West_Rubella <dbl>
…
